Bài 16
…
data_b

## # A tibble: 2,620 × 12
##    Campaign platform time   impr click    cost  conv  value    cpm   cpc   cpa
##       <dbl> <chr>    <chr> <dbl> <dbl>   <dbl> <dbl>  <dbl>  <dbl> <dbl> <dbl>
##  1        1 m        post    255     3  149.       0    0   0.582  49.5    0  
##  2        1 m        pre     155     3   94.4      4  193   0.609  31.5   23.6
##  3        1 d        post   1466    22  703.       9  570   0.480  32.0   78.2
##  4        1 d        pre    1430    15  482.       2    0   0.337  32.1  241. 
##  5        2 m        post     18     1    4.5      0    0   0.25    4.5    0  
##  6        2 m        pre    4900    41  395.       2  232.  0.0807  9.64 198. 
##  7        2 d        post  64535   348 5143.      51 3589.  0.0797 14.8  101. 
##  8        2 d        pre   54535   297 4085.      60 3905.  0.0749 13.8   68.1
##  9        3 m        post    583     2    8.17     0    0   0.0140  4.08   0  
## 10        3 m        pre    6858    46  162.       2   46.3 0.0236  3.52  81.0
## # ℹ 2,610 more rows
## # ℹ 1 more variable: cpr <dbl>
…
cpc_m_zero <- data_b |>
  filter(time == "post", cpc == 0, platform == "m") 

cpc_m <- data_b |>
  filter(time == "post", platform == "m") 

cpc_d_zero <- data_b |>
  filter(time == "post", cpc == 0, platform == "d") 

cpc_d <- data_b |>
  filter(time == "post", platform == "d") 
cpc_m_zero

## # A tibble: 47 × 12
##    Campaign platform time   impr click  cost  conv value   cpm   cpc   cpa   cpr
##       <dbl> <chr>    <chr> <dbl> <dbl> <dbl> <dbl> <dbl> <dbl> <dbl> <dbl> <dbl>
##  1        9 m        post     21     0     0     0     0     0     0     0     0
##  2       24 m        post    565     0     0     0     0     0     0     0     0
##  3       29 m        post      0     0     0     0     0     0     0     0     0
##  4       30 m        post      0     0     0     0     0     0     0     0     0
##  5       40 m        post     44     0     0     0     0     0     0     0     0
##  6       54 m        post      0     0     0     0     0     0     0     0     0
##  7       60 m        post     51     0     0     0     0     0     0     0     0
##  8       99 m        post      0     0     0     0     0     0     0     0     0
##  9      147 m        post    277     0     0     0     0     0     0     0     0
## 10      148 m        post      3     0     0     0     0     0     0     0     0
## # ℹ 37 more rows
…
